episodes	rating	members
1	9.37	200630
64	9.26	793665
51	9.25	114262
24	9.17	673572
51	9.16	151266
10	9.15	93351
148	9.13	425855
110	9.11	80679
1	9.10	72534
13	9.11	81109
24	9.06	456749
1	9.05	102733
201	9.04	336376
25	8.98	572888
25	8.93	179342
1	8.93	466254
22	8.92	416397
10	8.88	75894
1	8.84	226193
25	8.83	715151
75	8.83	157670
4	8.83	129307
26	8.82	486824
12	8.82	552458
1	8.81	339556
1	8.81	240297
26	8.80	205959
10	8.80	101351
26	8.78	300030
27	8.78	562962
43	8.77	268487
13	8.76	38865
26	8.75	88995
1	8.75	32266
13	8.75	98431
1	8.74	333186
12	8.73	340973
1	8.73	34347
74	8.72	247562
25	8.71	133620
37	8.71	1013917
2	8.69	16947
25	8.68	176475
25	8.68	284498
25	8.68	66756
1	8.68	111074
13	8.67	102322
11	8.67	97187
1	8.66	49036
12	8.65	402381
11	8.65	122531
13	8.64	56162
4	8.64	33422
26	8.64	139474
25	8.64	355839
1	8.64	82253
13	8.64	114173
11	8.62	463835
25	8.62	184525
1	8.61	192424
1	8.61	197439
24	8.61	348951
12	8.61	103178
2	8.60	11104
24	8.60	93657
1	8.59	51185
10	8.59	297454
24	8.59	425457
13	8.59	71295
99	8.59	72958
1	8.58	80825
1	8.58	174878
25	8.58	243325
25	8.58	28653
26	8.57	113993
39	8.57	74074
1	8.57	95658
39	8.57	31234
101	8.56	82570
11	8.56	194855
1	8.55	25641
12	8.55	193716
47	8.55	197256
13	8.54	363215
1	8.54	34011
25	8.54	896229
25	8.53	151561
50	8.53	53108
1	8.53	28864
1	8.53	182224
25	8.53	288376
26	8.53	44223
25	8.52	86074
13	8.51	453630
26	8.51	190197
12	8.51	462974
26	8.52	254436
22	8.50	509109
12	8.50	225927
51	8.50	38531
25	8.50	245026
1	8.50	135735
2	8.50	13405
26	8.50	390076
13	8.50	185015
12	8.49	207241
1	8.49	85361
25	8.49	24788
12	8.49	88850
24	8.49	146895
47	8.48	6259
62	8.48	166255
13	8.48	299434
12	8.48	146592
1	8.48	271484
26	8.47	194491
1	8.47	143273
12	8.47	602291
33	8.47	15074
112	8.47	195017
13	8.46	102822
25	8.46	338315
23	8.46	157025
12	8.46	210491
2	8.45	92543
1	8.46	159548
13	8.45	205987
50	8.45	36751
1	8.45	99579
1	8.45	215630
25	8.45	633817
1	8.44	289206
3	8.44	57963
12	8.43	107855
94	8.43	218928
1	8.43	125503
1	8.42	28462
12	8.42	267484
26	8.42	41061
6	8.42	15420
24	8.42	331627
13	8.42	210736
1	8.42	85020
24	8.41	218101
8	8.41	53168
14	8.41	55787
2	8.41	67261
26	8.41	30689
25	8.41	83056
26	8.40	148328
25	8.40	226430
1	8.40	137636
26	8.40	29528
7	8.40	42076
1	8.40	28302
24	8.40	291228
40	8.40	32188
24	8.40	380375
13	8.39	717796
15	8.39	482268
12	8.39	83641
1	8.39	47840
1	8.39	76051
26	8.39	422271
1	8.38	21798
24	8.38	556431
11	8.38	67697
26	8.38	105044
1	8.38	71136
1	8.38	151061
1	8.37	27213
12	8.37	61493
26	8.37	99128
1	8.37	45547
203	8.37	258103
10	8.37	122895
13	8.37	334932
13	8.36	282002
11	8.36	67032
13	8.36	71820
1	8.36	12282
13	8.36	27532
77	8.36	101027
25	8.35	246899
12	8.35	258914
1	8.35	189741
1	8.35	59815
26	8.35	28002
1	8.35	53590
1	8.34	31856
1	8.34	223036
1	8.34	115252
1	8.34	22900
1	8.34	13315
1	8.34	58492
1	8.34	38147
13	8.34	74941
1	8.33	65594
12	8.33	383914
51	8.33	600384
26	8.33	98996
8	8.33	57029
1	8.33	109392
25	8.32	158561
1	8.32	6229
291	8.32	375662
1	8.32	106382
1	8.32	59652
1	8.32	94435
26	8.32	224947
26	8.32	461946
1	8.32	18642
1	8.32	89424
26	8.32	283069
2	8.32	36353
1	8.31	14002
1	8.31	88164
12	8.31	69253
13	8.31	222994
1	8.31	35120
26	8.30	39596
12	8.30	203233
23	8.30	566690
12	8.30	142612
1	8.30	223359
3	8.29	100412
1	8.29	20602
26	8.29	55566
4	8.29	19702
12	8.29	56927
1	8.29	17247
120	8.29	47092
1	8.28	60637
1	8.28	40623
12	8.28	91796
25	8.28	134818
24	8.28	50778
24	8.27	103828
1	8.27	152331
11	8.27	70822
1	8.27	24707
25	8.27	60988
13	8.27	60918
1	8.27	45189
12	8.26	104893
6	8.26	99074
1	8.26	66376
26	8.26	391628
13	8.26	23701
11	8.26	342893
25	8.25	440334
1	8.25	25432
75	8.25	81384
102	8.25	255076
13	8.25	47716
24	8.25	120089
96	8.25	22079
12	8.26	64230
50	8.25	129112
8	8.25	5001
12	8.24	292622
24	8.24	41584
12	8.24	87617
1	8.24	75359
38	8.24	54211
11	8.24	108053
25	8.24	317513
25	8.24	120351
13	8.24	202249
13	8.24	40355
26	8.24	106888
24	8.23	216674
1	8.23	23130
12	8.23	115295
1	8.23	36091
51	8.23	17038
24	8.23	232113
1	8.23	20157
26	8.23	68128
24	8.23	508118
24	8.23	235003
1	8.23	117565
38	8.23	73218
1	8.23	89749
2	8.23	40420
79	8.22	15442
175	8.22	584590
1	8.22	55247
13	8.22	73480
39	8.22	77464
1	8.22	72933
1	8.21	21789
1	8.21	194561
12	8.21	171086
1	8.21	11808
1	8.21	108720
25	8.21	86972
11	8.21	260062
4	8.21	111009
22	8.20	312654
3	8.20	9500
25	8.20	36251
103	8.20	334399
24	8.20	8621
1	8.20	13764
1	8.20	32732
25	8.20	21210
13	8.20	22190
39	8.20	23160
1	8.20	23045
1	8.19	95241
26	8.19	76860
50	8.19	239570
1	8.19	21435
1	8.19	14728
2	8.19	5959
75	8.19	69000
25	8.19	309339
4	8.19	106989
11	8.19	121349
70	8.18	181249
12	8.18	103657
11	8.18	116261
24	8.18	130646
102	8.18	27893
1	8.18	38118
3	8.18	43372
2	8.18	35225
13	8.18	80763
12	8.17	332562
1	8.17	12151
1	8.17	77111
26	8.17	359494
22	8.17	372246
1	8.17	31464
24	8.17	163171
12	8.17	171866
12	8.17	515378
1	8.17	13359
2	8.17	40401
24	8.17	259900
1	8.16	11961
1	8.16	26799
1	8.16	25461
153	8.16	316102
25	8.16	6321
12	8.16	39866
45	8.16	66646
1	8.16	9943
26	8.16	15557
1	8.16	33862
26	8.16	159105
1	8.16	72708
24	8.16	137105
101	8.16	12833
38	8.16	91138
1	8.15	215897
5	8.15	108099
12	8.15	189407
1	8.15	7923
1	8.15	24310
10	8.15	7954
24	8.15	75612
1	8.15	163308
7	8.15	21020
26	8.15	93095
12	8.15	94820
12	8.14	80862
1	8.14	160423
21	8.14	10575
14	8.14	26711
26	8.14	246276
25	8.14	387100
1	8.14	13454
26	8.14	39832
1	8.13	20629
1	8.13	17165
1	8.13	20989
1	8.13	29331
24	8.13	5063
13	8.13	189641
1	8.13	41168
12	8.13	34177
1	8.13	6645
13	8.13	43916
4	8.13	37679
13	8.12	51382
1	8.12	12353
63	8.12	8199
12	8.12	132506
12	8.12	151106
1	8.12	51789
1	8.12	16614
52	8.12	5308
13	8.12	45825
12	8.12	194300
2	8.12	58075
1	8.12	5712
25	8.12	104075
13	8.12	353876
4	8.11	67962
5	8.11	124886
13	8.11	44564
25	8.11	49599
24	8.11	200833
1	8.10	3187
1	8.11	46018
5	8.11	13935
24	8.11	150872
3	8.10	324035
1	8.10	29969
28	8.10	7712
39	8.10	10649
1	8.10	97910
13	8.10	41685
2	8.10	49454
12	8.10	101335
1	8.09	66721
4	8.09	136135
12	8.11	3846
1	8.09	15069
1	8.09	13901
4	8.09	26036
13	8.09	72021
2	8.09	23192
24	8.09	88986
11	8.09	41521
1	8.09	19240
1	8.09	30516
13	8.09	25170
6	8.09	21186
145	8.08	83648
52	8.08	59374
10	8.08	111962
26	8.08	79816
12	8.08	117910
24	8.08	156689
1	8.08	11342
51	8.08	580184
1	8.08	68181
13	8.07	120731
1	8.07	41760
36	8.07	44157
26	8.07	657190
3	8.07	6554
26	8.07	4584
24	8.07	36941
12	8.07	618056
4	8.07	36351
50	8.07	36921
26	8.06	170901
1	8.06	63263
1	8.06	9649
1	8.06	9807
6	8.06	305165
13	8.06	155340
24	8.06	424919
13	8.06	91864
1	8.06	17826
5	8.06	52351
4	8.06	173264
39	8.06	50951
26	8.06	178553
8	8.05	28220
14	8.06	428569
1	8.05	8505
6	8.05	113040
1	8.05	70039
51	8.05	42253
1	8.05	103600
1	8.05	10021
12	8.05	133475
6	8.05	26361
69	8.05	50876
60	8.04	217752
1	8.04	95690
2	8.04	103105
12	8.04	81951
1	8.04	20433
13	8.04	244268
178	8.04	87643
26	8.04	5306
1	8.04	41547
12	8.04	44335
1	8.03	74690
1	8.03	50689
12	8.03	11903
23	8.03	265005
26	8.03	150393
13	8.03	409037
13	8.03	134694
11	8.03	276593
23	8.03	6528
10	8.03	244877
1	8.03	74028
50	8.03	28959
12	8.03	227734
114	8.03	70559
12	8.03	174531
2	8.03	31973
13	8.03	74040
35	8.02	8353
1	8.02	138364
1	8.03	9492
1	8.02	114415
25	8.02	95551
12	8.02	27274
26	8.02	67254
11	8.02	24167
26	8.02	48127
12	8.01	71976
13	8.01	72499
1	8.01	48432
61	8.01	42666
12	8.01	38102
12	8.01	15748
13	8.01	283847
3	8.01	5843
50	8.01	44668
1	8.01	13567
13	8.01	55402
51	8.00	19963
1	8.00	26284
6	8.00	52672
7	8.00	12283
4	8.00	8644
1	8.00	9268
2	8.00	38678
1	8.00	111703
5	8.00	12394
4	8.00	14419
1	8.00	11663
34	7.99	52586
1	7.99	41598
1	7.99	34630
12	7.99	12590
109	7.99	40271
52	7.99	9605
13	7.99	215829
22	7.99	251093
1	7.99	3811
13	7.98	183722
1	7.98	28947
1	7.98	21729
25	7.98	31606
20	7.98	34960
1	7.98	39374
9	7.98	10778
1	7.98	92499
24	7.98	78600
13	7.98	91075
13	7.98	117328
12	7.97	244314
12	7.97	153501
25	7.97	126426
26	7.97	95825
26	7.97	22214
9	7.97	20477
39	7.97	19510
24	7.97	16938
1	7.97	1528
13	7.97	11779
26	7.97	19841
1	7.97	81137
12	7.97	21240
1	7.97	30814
10	7.97	13888
6	7.97	51724
1	7.96	10244
13	7.96	64897
25	7.96	59818
1	7.96	40053
1	7.96	23204
3	7.96	40358
12	7.96	137610
148	7.96	8655
25	7.96	60525
26	7.96	7872
26	7.96	12236
49	7.96	10031
366	7.95	624055
12	7.95	394399
13	7.95	6723
11	7.95	65503
1	7.95	6515
1	7.95	7757
97	7.95	116832
48	7.95	64416
6	7.95	8847
12	7.95	284846
10	7.95	67732
24	7.95	43545
13	7.95	86475
13	7.95	213493
1	7.95	94677
26	7.95	165008
12	7.95	57665
78	7.95	7761
12	7.95	172367
1	7.95	68229
1	7.95	28339
1	7.94	42653
6	7.94	49891
1	7.94	20347
1	7.94	19290
1	7.94	138659
13	7.94	150596
1	7.94	12076
2	7.94	8734
1	7.94	98549
26	7.94	104193
8	7.94	26709
1	7.94	35711
4	7.94	85947
12	7.94	83097
2	7.94	22704
23	7.93	59492
12	7.93	140604
12	7.93	157551
12	7.93	102857
1	7.93	140277
1	7.93	85714
1	7.94	13094
2	7.93	30063
3	7.93	6073
358	7.93	31632
155	7.93	10873
1	7.93	20637
50	7.93	96973
1	7.93	23388
12	7.93	86380
2	7.93	4975
12	7.93	40819
2	7.93	37657
26	7.93	32742
2	7.93	22487
1	7.93	6540
1	7.93	5431
26	7.93	171863
3	7.92	29398
25	7.92	583823
26	7.92	316853
1	8.10	2493
1	7.91	7515
24	7.92	273191
1	7.92	16474
25	7.92	67323
12	7.92	89373
1	7.92	10306
1	7.92	53024
1	7.92	84833
1	7.92	7695
25	7.92	229567
1	7.92	9695
1	7.91	77103
52	7.91	9711
13	7.91	310137
13	7.91	6337
1	7.91	26746
1	7.91	5939
15	7.91	3205
1	7.92	2833
20	7.91	347599
47	7.91	15627
3	7.91	18575
12	7.91	193566
12	7.90	93074
1	7.90	11458
12	7.90	159793
104	7.90	16670
1	7.90	2963
113	7.90	12672
51	7.90	28341
39	7.90	37051
13	7.90	19180
2	7.90	7999
51	7.90	4479
22	7.90	82625
1	7.90	4641
1	7.90	27462
48	7.90	6473
25	7.90	36228
12	7.89	227417
38	7.89	66911
54	7.89	182208
1	7.89	8809
49	7.89	12825
167	7.89	281632
1	7.89	16373
1	7.89	51079
1	7.89	50496
1	7.89	103975
1	7.89	15220
43	7.89	51566
1	7.89	11343
2	7.89	104775
8	7.89	63265
1	7.89	5663
25	7.89	92088
12	7.88	534657
8	7.88	7999
1	7.88	105183
25	7.88	152811
13	7.88	117091
12	7.88	14414
13	7.88	336349
1	7.88	22774
4	7.88	14348
1	7.88	70787
78	7.88	58150
12	7.88	359011
1	7.88	32756
39	7.88	11424
3	7.88	5973
3	7.88	121063
1	7.88	3089
1	7.88	85013
51	7.88	60027
1	7.87	61020
12	7.87	83343
12	7.87	213342
12	7.87	266657
13	7.87	1043
1	7.87	62464
13	7.87	386048
1	7.87	23453
24	7.87	305837
49	7.87	86001
3	7.87	28485
1	7.87	24278
161	7.87	105212
6	7.87	16804
12	7.87	118341
26	7.87	73476
1	7.87	70391
52	7.87	9008
45	7.87	16591
24	7.87	231079
42	7.87	14869
40	7.87	5600
1	7.86	44900
142	7.86	4739
1	7.86	14938
12	7.86	55825
1	7.86	10115
1	7.86	20263
1	7.86	20397
1	7.86	8911
1	7.86	9729
2	7.86	11401
1	7.86	21489
6	7.86	75502
13	7.86	18580
12	7.86	146697
13	7.86	123529
13	7.85	80394
1	7.85	4069
13	7.85	623511
2	7.85	21164
36	7.85	1757
2	7.85	68623
13	7.85	86196
4	7.85	12413
13	7.85	14983
6	7.85	22609
10	7.85	218231
2	7.85	37540
1	7.85	94839
24	7.85	91530
2	7.85	40868
1	7.85	3304
1	7.84	22279
24	7.84	492133
13	7.84	22302
13	7.84	5606
2	7.84	88699
1	7.84	12963
6	7.84	14725
13	7.84	47619
9	7.84	32215
3	7.84	38643
1	7.84	87369
12	7.84	190058
2	7.84	11044
13	7.84	98544
31	7.84	6919
24	7.84	184520
12	7.84	90625
1	7.84	8838
2	7.84	19586
13	7.83	301282
104	7.83	36307
24	7.83	130689
5	7.83	83421
3	7.83	15085
1	7.83	15508
1	7.83	11957
1	7.83	45568
2	7.83	44388
13	7.83	26379
64	7.83	169517
25	7.83	893100
12	7.83	29622
13	7.83	16530
24	7.82	81408
26	7.82	79026
1	7.82	39077
1	7.82	2688
1	7.82	43673
13	7.82	33466
3	7.82	10720
13	7.82	114904
1	7.82	83795
373	7.82	4734
4	7.82	23138
1	7.82	8405
8	7.82	26468
4	7.82	9487
6	7.82	19044
12	7.82	135929
6	7.82	57166
13	7.82	189367
13	7.82	20397
78	7.81	12673
1	7.81	37078
12	7.81	23877
24	7.81	256325
22	7.81	460959
1	7.81	76286
13	7.81	56839
26	7.81	58993
1	7.81	178880
1	7.81	4368
1	7.81	46823
8	7.82	19317
13	7.81	22796
13	7.81	105471
1	7.81	19258
220	7.81	683297
12	7.81	91932
1	7.81	41368
6	7.81	38691
2	7.80	67684
50	7.80	208321
24	7.80	140865
7	7.80	35956
26	7.80	242553
26	7.80	52995
1	7.81	10558
11	7.80	53426
14	7.80	1119
46	7.80	7515
12	7.80	99462
26	7.80	83437
1	7.80	3735
12	7.80	73909
24	7.80	171384
1	7.79	2813
2	7.79	139013
13	7.79	76913
1	7.79	58184
1	7.79	2688
2	7.79	85409
46	7.79	8999
1	7.79	20059
2	7.79	12790
1	7.79	46803
26	7.79	172415
1	7.79	3479
10	7.79	25167
13	7.79	157642
52	7.79	13832
51	7.79	4838
3	7.79	9936
13	7.79	81037
24	7.79	184525
1	7.79	30524
1	7.79	28857
1	7.79	18624
13	7.78	160972
1	7.77	20749
1	7.78	33682
1	7.78	23285
1	7.78	51688
12	7.78	145102
1	7.78	87062
7	7.78	7576
10	7.78	180032
1	7.78	42344
1	7.78	4499
13	7.78	31394
1	7.78	30519
24	7.78	122976
1	7.78	11922
13	7.78	165358
26	7.78	28007
3	7.78	41701